Raster Homework
…
ℹ Use `spec()` to retrieve the full column specification for this data.
ℹ Specify the column types or set `show_col_types = FALSE` to quiet this message.

beetles

Simple feature collection with 31 features and 7 fields
Geometry type: POINT
Dimension:     XY
Bounding box:  xmin: -114.2935 ymin: 23.2855 xmax: -109.327 ymax: 29.32541
Geodetic CRS:  WGS 84
# A tibble: 31 × 8
   Site  Males Females Suitability MFRatio GenVarArapat GenVarEuphli
 * <chr> <dbl>   <dbl>       <dbl>   <dbl>        <dbl>        <dbl>
 1 32       40      27      0.0563   1.48         0.144       0.219 
 2 73       11       5      0.146    2.2          0.137       0.253 
 3 93       25      21      0.163    1.19         0.163       0.133 
 4 const    18      11      0.174    1.64         0.280       0.235 
 5 159      22      15      0.188    1.47         0.160       0.0809
 6 88       23      18      0.219    1.28         0.266       0.176 
 7 177      49      50      0.262    0.98         0.338       0.05  
 8 166      19      26      0.267    0.731        0.120       0.286 
 9 161      64      63      0.279    1.02         0.252       0.171 
10 64       16      19      0.288    0.842        0.141       0.251 
# ℹ 21 more rows
# ℹ 1 more variable: geometry <POINT [°]>
…
