Lake Anna Water Data for Tabular Homework
…
read_csv( url )

Rows: 501 Columns: 67
── Column specification ────────────────────────────────────────────────────────
Delimiter: ","
chr  (22): Date, StationName, StationCode, GroupCode, Bacteria (E.Coli) (ECO...
dbl  (17): Latitude, Longitude, SampleId, SampleDepth, Bacteria (E.Coli) (EC...
lgl  (26): Bacteria (E.Coli) (ECOLI.4) Problem, Dissolved oxygen (DO.2) Prob...
dttm  (1): ModifiedDate
time  (1): Time

ℹ Use `spec()` to retrieve the full column specification for this data.
ℹ Specify the column types or set `show_col_types = FALSE` to quiet this message.

# A tibble: 501 × 67
   Date      Time  StationName StationCode Latitude Longitude GroupCode SampleId
   <chr>     <tim> <chr>       <chr>          <dbl>     <dbl> <chr>        <dbl>
 1 04/03/20… 13:20 EX-11       LACA.EX-11      38.2     -77.9 LACA             1
 2 04/03/20… 13:20 EX-11       LACA.EX-11      38.2     -77.9 LACA             2
 3 04/03/20… 13:20 EX-11       LACA.EX-11      38.2     -77.9 LACA             2
 4 04/03/20… 13:20 EX-11       LACA.EX-11      38.2     -77.9 LACA             2
 5 04/03/20… 13:20 EX-11       LACA.EX-11      38.2     -77.9 LACA             2
 6 04/03/20… 14:15 EX-20       LACA.EX-20      38.2     -78.0 LACA             1
 7 04/03/20… 14:15 EX-20       LACA.EX-20      38.2     -78.0 LACA             2
 8 04/03/20… 14:45 EX-100      LACA.EX-100     38.2     -78.0 LACA             1
 9 04/03/20… 14:45 EX-100      LACA.EX-100     38.2     -78.0 LACA             2
10 04/03/20… 15:15 EX-5        LACA.EX-5       38.1     -78.0 LACA             1
# ℹ 491 more rows
# ℹ 59 more variables: SampleDepth <dbl>, `Bacteria (E.Coli) (ECOLI.4)` <dbl>,
#   `Bacteria (E.Coli) (ECOLI.4) Code` <chr>,
#   `Bacteria (E.Coli) (ECOLI.4) Problem` <lgl>,
#   `Bacteria (E.Coli) (ECOLI.4) Qualifier` <chr>,
#   `Bacteria (E.Coli) (ECOLI.4) Tier` <dbl>,
#   `Bacteria (E.Coli) (ECOLI.4) Units` <chr>, …
…
